…
``` r
library(cloudcidrs)

# current verison
packageVersion("cloudcidrs")
```

    ## [1] '0.1.1'

``` r
all_ranges()
```

    ## # A tibble: 4,472 x 7
    ##    provider cidr          minimum_ip maximum_ip     min_numeric max_numeric check_date
    ##    <chr>    <chr>         <chr>      <chr>                <dbl>       <dbl> <date>    
    ##  1 amazon   13.32.0.0/15  13.32.0.0  13.33.255.255    220200960   220332031 2018-06-12
    ##  2 amazon   13.35.0.0/16  13.35.0.0  13.35.255.255    220397568   220463103 2018-06-12
    ##  3 amazon   13.52.0.0/16  13.52.0.0  13.52.255.255    221511680   221577215 2018-06-12
    ##  4 amazon   13.53.0.0/16  13.53.0.0  13.53.255.255    221577216   221642751 2018-06-12
    ##  5 amazon   13.54.0.0/15  13.54.0.0  13.55.255.255    221642752   221773823 2018-06-12
    ##  6 amazon   13.56.0.0/16  13.56.0.0  13.56.255.255    221773824   221839359 2018-06-12
    ##  7 amazon   13.57.0.0/16  13.57.0.0  13.57.255.255    221839360   221904895 2018-06-12
    ##  8 amazon   13.58.0.0/15  13.58.0.0  13.59.255.255    221904896   222035967 2018-06-12
    ##  9 amazon   13.112.0.0/14 13.112.0.0 13.115.255.255   225443840   225705983 2018-06-12
    ## 10 amazon   13.124.0.0/16 13.124.0.0 13.124.255.255   226230272   226295807 2018-06-12
    ## # ... with 4,462 more rows
…
